1 - Rappels sur l’environnement de travail de R
…
[1] "mts"    "ts"     "matrix"

Pour manipulations : voir TP

tsibble

library(tsibble)
tsibbledata::aus_production

# A tsibble: 218 x 7 [1Q]
   Quarter  Beer Tobacco Bricks Cement Electricity   Gas
     <qtr> <dbl>   <dbl>  <dbl>  <dbl>       <dbl> <dbl>
 1 1956 Q1   284    5225    189    465        3923     5
 2 1956 Q2   213    5178    204    532        4436     6
 3 1956 Q3   227    5297    208    561        4806     7
 4 1956 Q4   308    5681    197    570        4418     6
 5 1957 Q1   262    5577    187    529        4339     5
 6 1957 Q2   228    5651    214    604        4811     7
 7 1957 Q3   236    5317    227    603        5259     7
 8 1957 Q4   320    6152    222    582        4735     6
 9 1958 Q1   272    5758    199    554        4608     5
10 1958 Q2   233    5641    229    620        5196     7
# … with 208 more rows

tsibbledata::global_economy

# A tsibble: 15,150 x 9 [1Y]
# Key:       Country [263]
   Country     Code   Year         GDP Growth   CPI Imports Exports Population
   <fct>       <fct> <dbl>       <dbl>  <dbl> <dbl>   <dbl>   <dbl>      <dbl>
 1 Afghanistan AFG    1960  537777811.     NA    NA    7.02    4.13    8996351
 2 Afghanistan AFG    1961  548888896.     NA    NA    8.10    4.45    9166764
 3 Afghanistan AFG    1962  546666678.     NA    NA    9.35    4.88    9345868
 4 Afghanistan AFG    1963  751111191.     NA    NA   16.9     9.17    9533954
 5 Afghanistan AFG    1964  800000044.     NA    NA   18.1     8.89    9731361
 6 Afghanistan AFG    1965 1006666638.     NA    NA   21.4    11.3     9938414
 7 Afghanistan AFG    1966 1399999967.     NA    NA   18.6     8.57   10152331
 8 Afghanistan AFG    1967 1673333418.     NA    NA   14.2     6.77   10372630
 9 Afghanistan AFG    1968 1373333367.     NA    NA   15.2     8.90   10604346
10 Afghanistan AFG    1969 1408888922.     NA    NA   15.0    10.1    10854428
# … with 15,140 more rows

as_tsibble(mts)

# A tsibble: 30 x 3 [1M]
# Key:       key [3]
      index key       value
      <mth> <chr>     <dbl>
 1 1961 jan Series 1 -0.626
 2 1961 fév Series 1  0.184
 3 1961 mar Series 1 -0.836
 4 1961 avr Series 1  1.60 
 5 1961 mai Series 1  0.330
 6 1961 jui Series 1 -0.820
 7 1961 jul Series 1  0.487
 8 1961 aoû Series 1  0.738
 9 1961 sep Series 1  0.576
10 1961 oct Series 1 -0.305
# … with 20 more rows
…
# A tsibble: 4 x 2 [1Q]
     date    moy
    <qtr>  <dbl>
1 1961 Q1  0.198
2 1961 Q2 -0.162
3 1961 Q3  0.161
4 1961 Q4  0.235

as_tsibble(mts) %>%  
    group_by_key() %>% 
    summarise(moy = mean(value))

# A tsibble: 30 x 3 [1M]
# Key:       key [3]
   key         index    moy
   <chr>       <mth>  <dbl>
 1 Series 1 1961 jan -0.626
 2 Series 1 1961 fév  0.184
 3 Series 1 1961 mar -0.836
 4 Series 1 1961 avr  1.60 
 5 Series 1 1961 mai  0.330
 6 Series 1 1961 jui -0.820
 7 Series 1 1961 jul  0.487
 8 Series 1 1961 aoû  0.738
 9 Series 1 1961 sep  0.576
10 Series 1 1961 oct -0.305
# … with 20 more rows
