Formations - 5 - Modèles ARIMA
…
On retrouve le modèle Airline : \(ARIMA(0,1,1)(0,1,1)\) !

Température mensuelle moyenne au chateau de Nottingham

Pour l’analyse de la série nottem, on utilisera le tidyverts. Ci-dessous un exemple de manipulation avec une autre série :

library(tsibble)
library(dplyr)
library(fable)
library(feasts)
library(ggplot2)
y <- as_tsibble(USAccDeaths)
y

# A tsibble: 72 x 2 [1M]
      index value
      <mth> <dbl>
 1 1973 jan  9007
 2 1973 fév  8106
 3 1973 mar  8928
 4 1973 avr  9137
 5 1973 mai 10017
 6 1973 jui 10826
 7 1973 jul 11317
 8 1973 aoû 10744
 9 1973 sep  9713
10 1973 oct  9938
# … with 62 more rows
…
        sarima101_011 = ARIMA(value ~ -1 + pdq(1, 0, 1) + PDQ(0, 1, 1)),
        sarima002_011 = ARIMA(value ~ -1 + pdq(0, 0, 2) + PDQ(0, 1, 1)),
        sarima102_011 = ARIMA(value ~ -1 + pdq(1, 0, 2) + PDQ(0, 1, 1)),
        sarima000_111 = ARIMA(value ~ -1 + pdq(0, 0, 0) + PDQ(1, 1, 1)),
        sarima100_111 = ARIMA(value ~ -1 + pdq(1, 0, 0) + PDQ(1, 1, 1)),
        sarima001_111 = ARIMA(value ~ -1 + pdq(0, 0, 1) + PDQ(1, 1, 1)),
        sarima101_111 = ARIMA(value ~ -1 + pdq(1, 0, 1) + PDQ(1, 1, 1)),
        sarima002_111 = ARIMA(value ~ -1 + pdq(0, 0, 2) + PDQ(1, 1, 1)),
        sarima102_111 = ARIMA(value ~ -1 + pdq(1, 0, 2) + PDQ(1, 1, 1))
    )
all_models %>% 
    glance() %>% 
    arrange(AICc)

# A tibble: 24 × 8
   .model        sigma2 log_lik   AIC  AICc   BIC ar_roots   ma_roots  
   <chr>          <dbl>   <dbl> <dbl> <dbl> <dbl> <list>     <list>    
 1 sarima100_111   5.25   -519. 1045. 1045. 1059. <cpl [13]> <cpl [12]>
 2 sarima002_111   5.23   -518. 1045. 1046. 1063. <cpl [12]> <cpl [14]>
 3 sarima101_111   5.25   -518. 1046. 1046. 1063. <cpl [13]> <cpl [13]>
 4 sarima102_111   5.25   -518. 1047. 1048. 1068. <cpl [13]> <cpl [14]>
 5 sarima001_111   5.33   -520. 1048. 1048. 1062. <cpl [12]> <cpl [13]>
 6 sarima002_011   5.44   -524. 1055. 1056. 1069. <cpl [0]>  <cpl [14]>
 7 sarima100_011   5.48   -525. 1056. 1056. 1066. <cpl [1]>  <cpl [12]>
 8 sarima101_011   5.46   -524. 1056. 1056. 1070. <cpl [1]>  <cpl [13]>
 9 sarima102_011   5.46   -524. 1057. 1057. 1074. <cpl [1]>  <cpl [14]>
10 sarima001_011   5.55   -526. 1058. 1058. 1069. <cpl [0]>  <cpl [13]>
# … with 14 more rows
…
